OS info is 
uname_result(system='Windows', node='LAPTOP-CPCCEMC0', release='10', version='10.0.18362', machine='AMD64', processor='AMD64 Family 22 Model 48 Stepping 1, AuthenticAMD')
круть
 Python version is 3.8.2 (tags/v3.8.2:7b3ab59, Feb 25 2020, 23:03:10) [MSC v.1916 64 bit (AMD64)] ('64bit', 'WindowsPE')